\relax 
\@writefile{toc}{\thispagestyle {empty}}
\citation{startrails}
\@writefile{toc}{\contentsline {section}{List of figures}{10}}
\@writefile{toc}{\contentsline {section}{Listings}{11}}
\@writefile{toc}{\contentsline {section}{Abbreviations}{12}}
\@writefile{toc}{\contentsline {section}{Introduction}{13}}
\citation{bloom}
\@writefile{toc}{\contentsline {section}{\numberline {1}Domain Analysis}{15}}
\@writefile{toc}{\contentsline {subsection}{\numberline {1.1}Problem description}{15}}
\@writefile{toc}{\contentsline {subsubsection}{\numberline {1.1.1}Learning model}{15}}
\citation{vygotsky}
\@writefile{lof}{\contentsline {figure}{\numberline {1.1}{\ignorespaces Bloom's taxonomy\relax }}{16}}
\providecommand*\caption@xref[2]{\@setref\relax\@undefined{#1}}
\newlabel{fig:bloom}{{1.1}{16}}
\@writefile{toc}{\contentsline {subsubsection}{\numberline {1.1.2}Factors influencing evaluation process}{16}}
\@writefile{toc}{\contentsline {subsubsection}{\numberline {1.1.3}Assessment classification}{17}}
\@writefile{lof}{\contentsline {figure}{\numberline {1.2}{\ignorespaces Assessment types\relax }}{18}}
\newlabel{fig:assessment}{{1.2}{18}}
\@writefile{toc}{\contentsline {subsection}{\numberline {1.2}Existing solutions}{19}}
\@writefile{toc}{\contentsline {subsubsection}{\numberline {1.2.1}Moodle}{19}}
\@writefile{toc}{\contentsline {subsubsection}{\numberline {1.2.2}Blackboard Learn}{20}}
\citation{campus}
\@writefile{toc}{\contentsline {subsubsection}{\numberline {1.2.3}Google Forms}{22}}
\@writefile{toc}{\contentsline {subsection}{\numberline {1.3}Suggested solution}{23}}
\@writefile{toc}{\contentsline {subsubsection}{\numberline {1.3.1}Psychology behind proposed approach}{23}}
\citation{stress}
\@writefile{toc}{\contentsline {subsubsection}{\numberline {1.3.2}System definition}{24}}
\citation{arch}
\@writefile{toc}{\contentsline {section}{\numberline {2}System Architecture and User Interaction}{26}}
\@writefile{toc}{\contentsline {subsection}{\numberline {2.1}System entities}{26}}
\@writefile{lof}{\contentsline {figure}{\numberline {2.1}{\ignorespaces Database models\relax }}{27}}
\newlabel{fig:model}{{2.1}{27}}
\@writefile{lof}{\contentsline {figure}{\numberline {2.2}{\ignorespaces Question types\relax }}{28}}
\newlabel{fig:question}{{2.2}{28}}
\@writefile{toc}{\contentsline {subsection}{\numberline {2.2}User interaction}{29}}
\@writefile{lof}{\contentsline {figure}{\numberline {2.3}{\ignorespaces Administrator use cases\relax }}{30}}
\newlabel{fig:admin}{{2.3}{30}}
\@writefile{lof}{\contentsline {figure}{\numberline {2.4}{\ignorespaces Teacher and student use cases\relax }}{31}}
\newlabel{fig:enduser}{{2.4}{31}}
\@writefile{lof}{\contentsline {figure}{\numberline {2.5}{\ignorespaces Test creation activity\relax }}{32}}
\newlabel{fig:test_cr}{{2.5}{32}}
\@writefile{lof}{\contentsline {figure}{\numberline {2.6}{\ignorespaces Taking test activity\relax }}{33}}
\newlabel{fig:test}{{2.6}{33}}
\@writefile{toc}{\contentsline {subsection}{\numberline {2.3}System behavior}{33}}
\newlabel{RF1}{34}
\@writefile{lof}{\contentsline {figure}{\numberline {2.7}{\ignorespaces Test taking and submission\relax }}{34}}
\newlabel{fig:test_seq}{{2.7}{34}}
\@writefile{lof}{\contentsline {figure}{\numberline {2.8}{\ignorespaces Application state diagram\relax }}{35}}
\newlabel{fig:state}{{2.8}{35}}
\@writefile{toc}{\contentsline {subsection}{\numberline {2.4}System components}{35}}
\@writefile{lof}{\contentsline {figure}{\numberline {2.9}{\ignorespaces Application deployment\relax }}{36}}
\newlabel{fig:dep}{{2.9}{36}}
\citation{ruby}
\@writefile{toc}{\contentsline {section}{\numberline {3}Used Technologies and System Implementation}{37}}
\@writefile{toc}{\contentsline {subsection}{\numberline {3.1}Technologies}{37}}
\@writefile{toc}{\contentsline {subsubsection}{\numberline {3.1.1}Ruby}{37}}
\citation{fowler}
\citation{startrails}
\citation{startrails}
\@writefile{lol}{\contentsline {lstlisting}{\numberline {3.1}Java reading from file}{38}}
\@writefile{lol}{\contentsline {lstlisting}{\numberline {3.2}Ruby reading from file}{38}}
\@writefile{toc}{\contentsline {subsubsection}{\numberline {3.1.2}Ruby on Rails}{38}}
\citation{postgres}
\@writefile{lof}{\contentsline {figure}{\numberline {3.1}{\ignorespaces Routing process of a Rails application\textsuperscript  {\cite  {startrails}}\relax }}{39}}
\newlabel{fig:routing}{{3.1}{39}}
\@writefile{toc}{\contentsline {subsubsection}{\numberline {3.1.3}PostgreSQL}{39}}
\@writefile{toc}{\contentsline {subsubsection}{\numberline {3.1.4}Libraries and gems}{40}}
\@writefile{toc}{\newpage }
\@writefile{toc}{\contentsline {subsection}{\numberline {3.2}Implementation}{41}}
\newlabel{lst:db}{{3.3}{41}}
\@writefile{lol}{\contentsline {lstlisting}{\numberline {3.3}Database configuration file}{41}}
\@writefile{toc}{\contentsline {subsubsection}{\numberline {3.2.1}Users}{42}}
\newlabel{lst:t_cont}{{3.4}{42}}
\@writefile{lol}{\contentsline {lstlisting}{\numberline {3.4}Example of a base controller}{42}}
\newlabel{lst:t_model}{{3.5}{42}}
\@writefile{lol}{\contentsline {lstlisting}{\numberline {3.5}Teacher model}{42}}
\newlabel{lst:routes}{{3.6}{44}}
\@writefile{lol}{\contentsline {lstlisting}{\numberline {3.6}Routes used by application}{44}}
\newlabel{lst:permit}{{3.7}{44}}
\@writefile{lol}{\contentsline {lstlisting}{\numberline {3.7}Student registrations controller}{44}}
\@writefile{toc}{\contentsline {subsubsection}{\numberline {3.2.2}Tests and questions}{45}}
\newlabel{lst:vis}{{3.8}{45}}
\@writefile{lol}{\contentsline {lstlisting}{\numberline {3.8}Course view in student namespace}{45}}
\newlabel{lst:vis}{{3.9}{45}}
\@writefile{lol}{\contentsline {lstlisting}{\numberline {3.9}Question creation view in teacher namespace}{45}}
\newlabel{lst:q_base}{{3.10}{46}}
\@writefile{lol}{\contentsline {lstlisting}{\numberline {3.10}Question base}{46}}
\newlabel{lst:q_mult}{{3.11}{47}}
\@writefile{lol}{\contentsline {lstlisting}{\numberline {3.11}Multiple choice question model}{47}}
\@writefile{toc}{\contentsline {subsubsection}{\numberline {3.2.3}Answer evaluation and grading}{47}}
\newlabel{lst:q_sample}{{3.12}{47}}
\@writefile{lol}{\contentsline {lstlisting}{\numberline {3.12}Rendering random question from a group}{47}}
\newlabel{lst:att_con}{{3.13}{48}}
\@writefile{lol}{\contentsline {lstlisting}{\numberline {3.13}Parsing and evaluation of student-submitted answers}{48}}
\@writefile{toc}{\contentsline {section}{\numberline {4}Economic Analysis}{49}}
\@writefile{toc}{\contentsline {subsection}{\numberline {4.1}Project description}{49}}
\@writefile{toc}{\contentsline {subsection}{\numberline {4.2}Time schedule}{49}}
\@writefile{toc}{\contentsline {subsubsection}{\numberline {4.2.1}Objective determination and SWOT analysis}{49}}
\@writefile{toc}{\contentsline {subsubsection}{\numberline {4.2.2}Time schedule establishment}{51}}
\newlabel{eq:duration}{{4.1}{51}}
\@writefile{toc}{\contentsline {subsection}{\numberline {4.3}Economic motivation}{51}}
\@writefile{lot}{\contentsline {table}{\numberline {4.1}{\ignorespaces Time schedule\relax }}{52}}
\newlabel{table:schedule}{{4.1}{52}}
\@writefile{toc}{\contentsline {subsubsection}{\numberline {4.3.1}Tangible and intangible asset expenses}{52}}
\@writefile{lot}{\contentsline {table}{\numberline {4.2}{\ignorespaces Tangible asset expenses\relax }}{52}}
\newlabel{table:tangible_assets}{{4.2}{52}}
\@writefile{toc}{\contentsline {subsubsection}{\numberline {4.3.2}Salary expenses}{53}}
\newlabel{eq:fs}{{4.3}{53}}
\@writefile{lot}{\contentsline {table}{\numberline {4.3}{\ignorespaces Intangible asset expenses\relax }}{53}}
\newlabel{table:intangible_assets}{{4.3}{53}}
\@writefile{lot}{\contentsline {table}{\numberline {4.4}{\ignorespaces Direct expenses\relax }}{54}}
\newlabel{table:direct_expenses}{{4.4}{54}}
\@writefile{lot}{\contentsline {table}{\numberline {4.5}{\ignorespaces Salary expenses\relax }}{54}}
\newlabel{table:salaries}{{4.5}{54}}
\@writefile{toc}{\contentsline {subsection}{\numberline {4.4}Individual salary}{54}}
\@writefile{toc}{\contentsline {subsubsection}{\numberline {4.4.1}Indirect expenses}{55}}
\@writefile{toc}{\contentsline {subsubsection}{\numberline {4.4.2}Wear and depreciation}{55}}
\@writefile{lot}{\contentsline {table}{\numberline {4.6}{\ignorespaces Indirect expenses\relax }}{56}}
\newlabel{table:indirect_expenses}{{4.6}{56}}
\newlabel{eq:wear}{{4.13}{56}}
\@writefile{toc}{\contentsline {subsubsection}{\numberline {4.4.3}Product cost}{57}}
\@writefile{lot}{\contentsline {table}{\numberline {4.7}{\ignorespaces Total Product Cost\relax }}{57}}
\newlabel{table:product_cost}{{4.7}{57}}
\@writefile{toc}{\contentsline {subsubsection}{\numberline {4.4.4}Economic indicators and results}{57}}
\@writefile{toc}{\contentsline {subsection}{\numberline {4.5}Economic conclusions}{58}}
\@writefile{toc}{\contentsline {section}{Conclusions}{59}}
\bibcite{bloom}{1}
\bibcite{vygotsky}{2}
\bibcite{hanna}{3}
\bibcite{campus}{4}
\bibcite{stress}{5}
\bibcite{arch}{6}
\bibcite{question}{7}
\bibcite{ruby}{8}
\bibcite{katz}{9}
\bibcite{fowler}{10}
\bibcite{startrails}{11}
\bibcite{postgres}{12}
\@writefile{toc}{\contentsline {section}{References}{61}}
